5 Section 4 Overview | Data Science Wrangling
…
## Loading required package: gutenbergr

if(!require(tidytext)) install.packages("tidytext")

## Loading required package: tidytext

library(gutenbergr)
library(tidytext)

You can see the books and documents available in gutenbergr like this:

gutenberg_metadata

## # A tibble: 51,997 x 8
##    gutenberg_id title                                                  author              gutenberg_author_… language gutenberg_bookshelf                     rights         has_text
##           <int> <chr>                                                  <chr>                            <int> <chr>    <chr>                                   <chr>          <lgl>   
##  1            0  <NA>                                                  <NA>                                NA en       <NA>                                    Public domain… TRUE    
##  2            1 "The Declaration of Independence of the United States… Jefferson, Thomas                 1638 en       United States Law/American Revolutiona… Public domain… TRUE    
##  3            2 "The United States Bill of Rights\r\nThe Ten Original… United States                        1 en       American Revolutionary War/Politics/Un… Public domain… TRUE    
##  4            3 "John F. Kennedy's Inaugural Address"                  Kennedy, John F. (…               1666 en       <NA>                                    Public domain… TRUE    
##  5            4 "Lincoln's Gettysburg Address\r\nGiven November 19, 1… Lincoln, Abraham                     3 en       US Civil War                            Public domain… TRUE    
##  6            5 "The United States Constitution"                       United States                        1 en       American Revolutionary War/Politics/Un… Public domain… TRUE    
##  7            6 "Give Me Liberty or Give Me Death"                     Henry, Patrick                       4 en       American Revolutionary War              Public domain… TRUE    
##  8            7 "The Mayflower Compact"                                <NA>                                NA en       <NA>                                    Public domain… TRUE    
##  9            8 "Abraham Lincoln's Second Inaugural Address"           Lincoln, Abraham                     3 en       US Civil War                            Public domain… TRUE    
## 10            9 "Abraham Lincoln's First Inaugural Address"            Lincoln, Abraham                     3 en       US Civil War                            Public domain… TRUE    
## # … with 51,987 more rows
…
## [1] 122

Finish it up by changing tab to a tidy format, starting from this code outline:

tab <- tab %>% ________(year, deaths, -day) %>%
    mutate(deaths = as.numeric(deaths))
tab

What code fills the blank to generate a data frame with columns named “day”, “year” and “deaths”?

tab <- tab %>% gather(year, deaths, -day) %>%
    mutate(deaths = as.numeric(deaths))
tab

## # A tibble: 120 x 3
##      day year  deaths
##    <dbl> <chr>  <dbl>
##  1     1 2015      75
##  2     2 2015      77
##  3     3 2015      67
##  4     4 2015      71
##  5     5 2015      62
##  6     6 2015      77
##  7     7 2015      85
##  8     8 2015      84
##  9     9 2015      79
## 10    10 2015      66
## # … with 110 more rows
…
