4 Section 3 Overview | Data Science Wrangling
…
## Warning: `as_data_frame()` is deprecated as of tibble 2.0.0.
## Please use `as_tibble()` instead.
## The signature and semantics have changed, see `?as_tibble`.
## This warning is displayed once every 8 hours.
## Call `lifecycle::last_warnings()` to see where this warning was generated.

## Warning: The `x` argument of `as_tibble.matrix()` must have unique column names if `.name_repair` is omitted as of tibble 2.0.0.
## Using compatibility `.name_repair`.
## This warning is displayed once every 8 hours.
## Call `lifecycle::last_warnings()` to see where this warning was generated.

## # A tibble: 51 x 5
##    state                abb   region    population total
##    <chr>                <chr> <chr>          <dbl> <dbl>
##  1 Alabama              AL    South        4779736   135
##  2 Alaska               AK    West          710231    19
##  3 Arizona              AZ    West         6392017   232
##  4 Arkansas             AR    South        2915918    93
##  5 California           CA    West        37253956  1257
##  6 Colorado             CO    West         5029196    65
##  7 Connecticut          CT    Northeast    3574097    97
##  8 Delaware             DE    South         897934    38
##  9 District of Columbia DC    South         601723    99
## 10 Florida              FL    South       19687653   669
## # … with 41 more rows
…
