3 Section 2 Overview | Data Science Wrangling
…
dat$key[1:5]

## [1] "1960_fertility"       "1960_fertility"       "1960_life_expectancy" "1960_life_expectancy" "1961_fertility"

# separate on underscores
dat %>% separate(key, c("year", "variable_name"), "_")

## Warning: Expected 2 pieces. Additional pieces discarded in 112 rows [3, 4, 7, 8, 11, 12, 15, 16, 19, 20, 23, 24, 27, 28, 31, 32, 35, 36, 39, 40, ...].

## # A tibble: 224 x 4
##    country     year  variable_name value
##    <chr>       <chr> <chr>         <dbl>
##  1 Germany     1960  fertility      2.41
##  2 South Korea 1960  fertility      6.16
##  3 Germany     1960  life          69.3 
##  4 South Korea 1960  life          53.0 
##  5 Germany     1961  fertility      2.44
##  6 South Korea 1961  fertility      5.99
##  7 Germany     1961  life          69.8 
##  8 South Korea 1961  life          53.8 
##  9 Germany     1962  fertility      2.47
## 10 South Korea 1962  fertility      5.79
## # … with 214 more rows

dat %>% separate(key, c("year", "variable_name"))

## Warning: Expected 2 pieces. Additional pieces discarded in 112 rows [3, 4, 7, 8, 11, 12, 15, 16, 19, 20, 23, 24, 27, 28, 31, 32, 35, 36, 39, 40, ...].

## # A tibble: 224 x 4
##    country     year  variable_name value
##    <chr>       <chr> <chr>         <dbl>
##  1 Germany     1960  fertility      2.41
##  2 South Korea 1960  fertility      6.16
##  3 Germany     1960  life          69.3 
##  4 South Korea 1960  life          53.0 
##  5 Germany     1961  fertility      2.44
##  6 South Korea 1961  fertility      5.99
##  7 Germany     1961  life          69.8 
##  8 South Korea 1961  life          53.8 
##  9 Germany     1962  fertility      2.47
## 10 South Korea 1962  fertility      5.79
## # … with 214 more rows

# split on all underscores, pad empty cells with NA
dat %>% separate(key, c("year", "first_variable_name", "second_variable_name"), 
                 fill = "right")

## # A tibble: 224 x 5
##    country     year  first_variable_name second_variable_name value
##    <chr>       <chr> <chr>               <chr>                <dbl>
##  1 Germany     1960  fertility           <NA>                  2.41
##  2 South Korea 1960  fertility           <NA>                  6.16
##  3 Germany     1960  life                expectancy           69.3 
##  4 South Korea 1960  life                expectancy           53.0 
##  5 Germany     1961  fertility           <NA>                  2.44
##  6 South Korea 1961  fertility           <NA>                  5.99
##  7 Germany     1961  life                expectancy           69.8 
##  8 South Korea 1961  life                expectancy           53.8 
##  9 Germany     1962  fertility           <NA>                  2.47
## 10 South Korea 1962  fertility           <NA>                  5.79
## # … with 214 more rows

# split on first underscore but keep life_expectancy merged
dat %>% separate(key, c("year", "variable_name"), sep = "_", extra = "merge")

## # A tibble: 224 x 4
##    country     year  variable_name   value
##    <chr>       <chr> <chr>           <dbl>
##  1 Germany     1960  fertility        2.41
##  2 South Korea 1960  fertility        6.16
##  3 Germany     1960  life_expectancy 69.3 
##  4 South Korea 1960  life_expectancy 53.0 
##  5 Germany     1961  fertility        2.44
##  6 South Korea 1961  fertility        5.99
##  7 Germany     1961  life_expectancy 69.8 
##  8 South Korea 1961  life_expectancy 53.8 
##  9 Germany     1962  fertility        2.47
## 10 South Korea 1962  fertility        5.79
## # … with 214 more rows

# separate then spread
dat %>% separate(key, c("year", "variable_name"), sep = "_", extra = "merge") %>%
  spread(variable_name, value) 

## # A tibble: 112 x 4
##    country year  fertility life_expectancy
##    <chr>   <chr>     <dbl>           <dbl>
##  1 Germany 1960       2.41            69.3
##  2 Germany 1961       2.44            69.8
##  3 Germany 1962       2.47            70.0
##  4 Germany 1963       2.49            70.1
##  5 Germany 1964       2.49            70.7
##  6 Germany 1965       2.48            70.6
##  7 Germany 1966       2.44            70.8
##  8 Germany 1967       2.37            71.0
##  9 Germany 1968       2.28            70.6
## 10 Germany 1969       2.17            70.5
## # … with 102 more rows

# separate then unite
dat %>% 
  separate(key, c("year", "first_variable_name", "second_variable_name"), fill = "right") %>%
  unite(variable_name, first_variable_name, second_variable_name, sep="_")

## # A tibble: 224 x 4
##    country     year  variable_name   value
##    <chr>       <chr> <chr>           <dbl>
##  1 Germany     1960  fertility_NA     2.41
##  2 South Korea 1960  fertility_NA     6.16
##  3 Germany     1960  life_expectancy 69.3 
##  4 South Korea 1960  life_expectancy 53.0 
##  5 Germany     1961  fertility_NA     2.44
##  6 South Korea 1961  fertility_NA     5.99
##  7 Germany     1961  life_expectancy 69.8 
##  8 South Korea 1961  life_expectancy 53.8 
##  9 Germany     1962  fertility_NA     2.47
## 10 South Korea 1962  fertility_NA     5.79
## # … with 214 more rows

# full code for tidying data
dat %>% 
  separate(key, c("year", "first_variable_name", "second_variable_name"), fill = "right") %>%
  unite(variable_name, first_variable_name, second_variable_name, sep="_") %>%
  spread(variable_name, value) %>%
  rename(fertility = fertility_NA)

## # A tibble: 112 x 4
##    country year  fertility life_expectancy
##    <chr>   <chr>     <dbl>           <dbl>
##  1 Germany 1960       2.41            69.3
##  2 Germany 1961       2.44            69.8
##  3 Germany 1962       2.47            70.0
##  4 Germany 1963       2.49            70.1
##  5 Germany 1964       2.49            70.7
##  6 Germany 1965       2.48            70.6
##  7 Germany 1966       2.44            70.8
##  8 Germany 1967       2.37            71.0
##  9 Germany 1968       2.28            70.6
## 10 Germany 1969       2.17            70.5
## # … with 102 more rows
…
Also Inspect the Master data frame, which has demographic information for all players:

Master %>% as_tibble()

## # A tibble: 19,878 x 26
##    playerID birthYear birthMonth birthDay birthCountry birthState birthCity deathYear deathMonth deathDay deathCountry deathState deathCity nameFirst nameLast nameGiven weight height
##    <chr>        <int>      <int>    <int> <chr>        <chr>      <chr>         <int>      <int>    <int> <chr>        <chr>      <chr>     <chr>     <chr>    <chr>      <int>  <int>
##  1 aardsda…      1981         12       27 USA          CO         Denver           NA         NA       NA <NA>         <NA>       <NA>      David     Aardsma  David Al…    215     75
##  2 aaronha…      1934          2        5 USA          AL         Mobile           NA         NA       NA <NA>         <NA>       <NA>      Hank      Aaron    Henry Lo…    180     72
##  3 aaronto…      1939          8        5 USA          AL         Mobile         1984          8       16 USA          GA         Atlanta   Tommie    Aaron    Tommie L…    190     75
##  4 aasedo01      1954          9        8 USA          CA         Orange           NA         NA       NA <NA>         <NA>       <NA>      Don       Aase     Donald W…    190     75
##  5 abadan01      1972          8       25 USA          FL         Palm Bea…        NA         NA       NA <NA>         <NA>       <NA>      Andy      Abad     Fausto A…    184     73
##  6 abadfe01      1985         12       17 D.R.         La Romana  La Romana        NA         NA       NA <NA>         <NA>       <NA>      Fernando  Abad     Fernando…    220     73
##  7 abadijo…      1850         11        4 USA          PA         Philadel…      1905          5       17 USA          NJ         Pemberton John      Abadie   John W.      192     72
##  8 abbated…      1877          4       15 USA          PA         Latrobe        1957          1        6 USA          FL         Fort Lau… Ed        Abbatic… Edward J…    170     71
##  9 abbeybe…      1869         11       11 USA          VT         Essex          1962          6       11 USA          VT         Colchest… Bert      Abbey    Bert Wood    175     71
## 10 abbeych…      1866         10       14 USA          NE         Falls Ci…      1926          4       27 USA          CA         San Fran… Charlie   Abbey    Charles …    169     68
## # … with 19,868 more rows, and 8 more variables: bats <fct>, throws <fct>, debut <chr>, finalGame <chr>, retroID <chr>, bbrefID <chr>, deathDate <date>, birthDate <date>
…
